{
    "Hauptseminar (CS1025) - SEM - 35559": {
        "id": "35559",
        "comment": "",
        "subjectID": "2538",
        "method": "SEM",
        "subjectName": "Hauptseminar (CS1025)"
    }
}