<svg xmlns="http://www.w3.org/2000/svg" viewBox="0 0 739.08 123.74">
    <defs>
        <style>
            .cls-1 {
            fill: #fff;
            }
        </style>
    </defs>
    <title>font_white-vector</title>
    <g id="Ebene_2" data-name="Ebene 2">
        <g id="Ebene_1-2" data-name="Ebene 1">
            <g>
                <g>
                    <path class="cls-1"
                          d="M306.52,75.7a3.4,3.4,0,0,1,2.57,1.15l7.15,7.75a39.27,39.27,0,0,1-14.6,11.26q-8.67,3.92-20.81,3.91a49,49,0,0,1-19.52-3.71,43,43,0,0,1-14.8-10.31A45.26,45.26,0,0,1,237.1,70a59.27,59.27,0,0,1-3.27-20,53.85,53.85,0,0,1,3.64-20.13,46.17,46.17,0,0,1,10.25-15.75A46.56,46.56,0,0,1,263.53,3.78,54.42,54.42,0,0,1,283.87.11a48,48,0,0,1,19,3.47,44.16,44.16,0,0,1,13.92,9.2l-6.07,8.43a5.46,5.46,0,0,1-1.38,1.42,3.94,3.94,0,0,1-2.32.61A5.3,5.3,0,0,1,303.83,22a39.66,39.66,0,0,0-4.12-2.63,33.7,33.7,0,0,0-6.3-2.63,36.49,36.49,0,0,0-22.32,1.18,28.15,28.15,0,0,0-9.92,6.85,31.45,31.45,0,0,0-6.47,10.82,41.62,41.62,0,0,0-2.33,14.33,42.73,42.73,0,0,0,2.33,14.63A32,32,0,0,0,261,75.36a26.87,26.87,0,0,0,9.37,6.71A29,29,0,0,0,282,84.4a50.45,50.45,0,0,0,6.71-.41,28.19,28.19,0,0,0,5.53-1.28A24.11,24.11,0,0,0,299,80.45a29.77,29.77,0,0,0,4.48-3.4,6.23,6.23,0,0,1,1.42-1A3.5,3.5,0,0,1,306.52,75.7Z"/>
                    <path class="cls-1"
                          d="M387.8,99.53h-8a8.57,8.57,0,0,1-4-.76c-1-.5-1.68-2.43-2.16-4l-1.59-5.27A58.94,58.94,0,0,1,366.57,94,34.55,34.55,0,0,1,361,97.18a28.65,28.65,0,0,1-6.13,1.94,36.31,36.31,0,0,1-7.21.65A28.5,28.5,0,0,1,339,98.51a18.72,18.72,0,0,1-6.81-3.8,17.3,17.3,0,0,1-4.44-6.3,22.48,22.48,0,0,1-1.58-8.75,17.3,17.3,0,0,1,2.2-8.29A20.71,20.71,0,0,1,335.67,64a46.82,46.82,0,0,1,13.63-5.46,86.87,86.87,0,0,1,21.13-2.17V52.68q0-7.49-3.14-11.08T358.17,38A22.22,22.22,0,0,0,351,39a27.9,27.9,0,0,0-5,2.28c-1.42.84-2.73,1.59-3.93,2.27a8,8,0,0,1-4,1,5.09,5.09,0,0,1-3.1-.94,7.25,7.25,0,0,1-2.1-2.31l-3.24-5.7Q342.38,24,360.4,23.94A29.74,29.74,0,0,1,372,26.07,24.58,24.58,0,0,1,380.59,32,25.37,25.37,0,0,1,386,41a35,35,0,0,1,1.83,11.54Zm-34.61-12a24.1,24.1,0,0,0,5.05-.49,19.34,19.34,0,0,0,4.36-1.49,24,24,0,0,0,4-2.45,36,36,0,0,0,3.86-3.45V67.25a72.59,72.59,0,0,0-13,1,34,34,0,0,0-8.4,2.51,10.71,10.71,0,0,0-4.51,3.56,7.88,7.88,0,0,0-1.33,4.42q0,4.73,2.77,6.76A12,12,0,0,0,353.19,87.51Z"/>
                    <path class="cls-1"
                          d="M405.33,99.55V24h10.89a4.37,4.37,0,0,1,4.54,3.24l.95,6.48a43.51,43.51,0,0,1,4.08-4,26.22,26.22,0,0,1,4.54-3.1,24.61,24.61,0,0,1,5.19-2.05,22.9,22.9,0,0,1,6.1-.76,17.25,17.25,0,0,1,11.5,3.79,22.76,22.76,0,0,1,6.74,10.06,22.34,22.34,0,0,1,4.33-6.31,23.46,23.46,0,0,1,5.69-4.29,26.19,26.19,0,0,1,6.6-2.46,32.24,32.24,0,0,1,7-.79,29.52,29.52,0,0,1,10.89,1.88,20.83,20.83,0,0,1,8,5.48A24.16,24.16,0,0,1,507.35,40a35.65,35.65,0,0,1,1.9,11.51v48H491.44v-48c0-4.71-1.24-7.86-3.31-10.24S483,37.72,479,37.72a13.66,13.66,0,0,0-5.08.93,12.21,12.21,0,0,0-4.11,2.71,12.36,12.36,0,0,0-2.78,4.43,15.29,15.29,0,0,0-.8,5.74v48H448.38v-48c0-5-1.2-8.16-3.2-10.42s-4.94-3.39-8.83-3.39a14.22,14.22,0,0,0-7.18,1.91,24.14,24.14,0,0,0-6.23,5.23l.2,54.69Z"/>
                    <path class="cls-1"
                          d="M526.77,123.72V24h10.89a5.4,5.4,0,0,1,3,.79,3.74,3.74,0,0,1,1.58,2.45l1.45,7.46A35.19,35.19,0,0,1,553.92,27a28,28,0,0,1,13.6-3.17,24.34,24.34,0,0,1,11.07,2.52,25,25,0,0,1,8.65,7.32,31.91,31.91,0,0,1,5.62,11.23,59.21,59.21,0,0,1,2,16.12,50.68,50.68,0,0,1-2.24,15.36,37.66,37.66,0,0,1-6.38,12.26,29.55,29.55,0,0,1-10,8.11,29.15,29.15,0,0,1-13.16,2.92,26.53,26.53,0,0,1-10.64-1.91,26,26,0,0,1-7.83-5.3v31.23Zm34.62-86.4a18.22,18.22,0,0,0-9.49,2.34,27.68,27.68,0,0,0-7.32,6.6V79.44a16.88,16.88,0,0,0,6.6,5.22,19.79,19.79,0,0,0,7.68,1.48,17.27,17.27,0,0,0,7.32-1.51A14.24,14.24,0,0,0,571.74,80a22.87,22.87,0,0,0,3.49-7.82,44.55,44.55,0,0,0,1.23-11.14,49.3,49.3,0,0,0-1.05-11,21.15,21.15,0,0,0-3-7.32,11.91,11.91,0,0,0-4.72-4.11A14.68,14.68,0,0,0,561.39,37.32Z"/>
                    <path class="cls-1"
                          d="M624.63,24V71.65q0,6.78,3.14,10.49t9.41,3.72a18.82,18.82,0,0,0,8.65-2.06,30.51,30.51,0,0,0,7.65-5.66V24h17.81l0,75.47H660.37c-2.3,0-3.79-2-4.51-4.13l-1.23-5.91a51.57,51.57,0,0,1-4.76,4.22,28.88,28.88,0,0,1-5.23,3.25,29.18,29.18,0,0,1-12.87,2.84,26.27,26.27,0,0,1-10.71-2,21.41,21.41,0,0,1-7.82-5.81,25.36,25.36,0,0,1-4.8-8.9,37.8,37.8,0,0,1-1.62-11.36V24Z"/>
                    <path class="cls-1"
                          d="M735,39.65a4.69,4.69,0,0,1-1.51,1.62,3.84,3.84,0,0,1-2.16.54,7,7,0,0,1-2.64-.79c-1-.48-2.13-1-3.42-1.62a31.51,31.51,0,0,0-4.44-1.62,21.3,21.3,0,0,0-5.88-.72c-3.51,0-7,.74-9,2.23a6.94,6.94,0,0,0-3,5.84,4.3,4.3,0,0,0,1.55,3.41,13.92,13.92,0,0,0,4.12,2.84,38.69,38.69,0,0,0,5.8,2.2c2.16.65,4.38,1.36,6.63,2.13s4.48,1.65,6.64,2.63a23.53,23.53,0,0,1,5.81,3.75,17.65,17.65,0,0,1,4.11,5.45,17.29,17.29,0,0,1,1.55,7.64,24.57,24.57,0,0,1-2,9.85,21.62,21.62,0,0,1-5.7,7.78,26.78,26.78,0,0,1-9.26,5.13,40.19,40.19,0,0,1-12.66,1.83,40.94,40.94,0,0,1-7.47-.68,44.12,44.12,0,0,1-7-1.91,38.43,38.43,0,0,1-6.2-2.89,30.06,30.06,0,0,1-5-3.6L688,83.91A5.89,5.89,0,0,1,689.82,82a5.27,5.27,0,0,1,2.74-.65,5.82,5.82,0,0,1,3.14.94c1,.63,2.13,1.3,3.42,2a30.54,30.54,0,0,0,4.58,2,20,20,0,0,0,6.67.94,17.48,17.48,0,0,0,5.45-.76,11.47,11.47,0,0,0,3.75-2,7.56,7.56,0,0,0,2.16-2.85,8.49,8.49,0,0,0,.69-3.36,6,6,0,0,0-1.55-4.25,13.7,13.7,0,0,0-4.11-2.88,38.57,38.57,0,0,0-5.85-2.2c-2.18-.65-4.42-1.36-6.7-2.13a62.66,62.66,0,0,1-6.71-2.7,23.2,23.2,0,0,1-5.84-3.93,17.73,17.73,0,0,1-4.11-5.85A20.39,20.39,0,0,1,686,46.05,18.65,18.65,0,0,1,687.8,38a20.25,20.25,0,0,1,5.3-7.17,26.24,26.24,0,0,1,8.73-4.91,41.12,41.12,0,0,1,12.81-1.84,37,37,0,0,1,13.91,2.53A31.35,31.35,0,0,1,739,33.23Z"/>
                </g>
                <g>
                    <path class="cls-1"
                          d="M0,23.77V4.47A4.34,4.34,0,0,1,4.47,0,4.33,4.33,0,0,1,8.94,4.47v19.3H23.85a3.89,3.89,0,0,1,2.9,1.34,4.24,4.24,0,0,1,1.27,3A3.82,3.82,0,0,1,26.83,31a4.22,4.22,0,0,1-3,1.12H8.94V82.05q0,5.65,2.09,7.67a7.61,7.61,0,0,0,5.51,2,8.55,8.55,0,0,0,2.24-.37A8.75,8.75,0,0,1,20.87,91a3,3,0,0,1,2.31,1.12,3.86,3.86,0,0,1,1,2.61,4.07,4.07,0,0,1-2.38,3.5,10.93,10.93,0,0,1-5.66,1.41,30.9,30.9,0,0,1-7.16-.74c-2.08-.5-4.1-2-6-4.47S0,88,0,82.49V23.77Z"/>
                    <path class="cls-1"
                          d="M41.13,11.16a5.13,5.13,0,0,1-1.64-4.1V5.57a5,5,0,0,1,1.72-4.1A7.15,7.15,0,0,1,45.9.06c4,0,6,1.84,6,5.51V7.06a5.25,5.25,0,0,1-1.56,4.1,6.53,6.53,0,0,1-4.55,1.42A6.85,6.85,0,0,1,41.13,11.16ZM49,98.37a4.71,4.71,0,0,1-6.41,0,4.33,4.33,0,0,1-1.27-3.21V28.38a4.48,4.48,0,1,1,8.95,0V95.16A4.37,4.37,0,0,1,49,98.37Z"/>
                    <path class="cls-1"
                          d="M126.76,32c4.32,5.42,6.48,13.2,6.48,22.14v41a4.24,4.24,0,0,1-1.34,3.21,4.42,4.42,0,0,1-3.13,1.26,4.33,4.33,0,0,1-4.47-4.47V54.56q0-9.68-4.85-15.72c-3.23-4-8.22-6.63-15-6.63-4.28,0-8.33,1.59-12.15,3.58s-6.93,6-9.32,9.36A18.21,18.21,0,0,0,79.44,56V95.16a4.48,4.48,0,1,1-9,0V28.39a4.48,4.48,0,1,1,9,0V38.76A31.57,31.57,0,0,1,91,28.11a31,31,0,0,1,15.42-4.25Q120.27,23.86,126.76,32Z"/>
                    <path class="cls-1"
                          d="M212.9,25.21a4.35,4.35,0,0,1,1.27,3.21l.12,61.12c0,7.85-1.54,11.65-4.62,17.21a30.81,30.81,0,0,1-12.82,12.67,39,39,0,0,1-18.48,4.32,49,49,0,0,1-11.7-1.34,31,31,0,0,1-9-3.58c-2.08-1.29-3.13-2.73-3.13-4.32a9,9,0,0,1,.3-1.49,4.08,4.08,0,0,1,1.49-2.23,3.77,3.77,0,0,1,2.24-.75,4,4,0,0,1,1.79.45q9.53,5.2,18.18,5.21,12.38,0,19.6-7.75c4.82-5.16,7.23-10.7,7.23-19.64l0-2.42A27.83,27.83,0,0,1,194.5,95.94a31.43,31.43,0,0,1-15.21,3.8q-13,0-19.67-7.75t-6.71-21V28.35a4.48,4.48,0,1,1,9,0V69.63q0,10.73,4.69,16.25t14.68,5.51a24.09,24.09,0,0,0,11.7-3,25,25,0,0,0,8.94-8,18.75,18.75,0,0,0,3.36-10.66V28.42a4.53,4.53,0,0,1,7.67-3.21Z"/>
                </g>
            </g>
        </g>
    </g>
</svg>
