<svg xmlns="http://www.w3.org/2000/svg" viewBox="0 0 740.55 630.81">
    <defs>
        <style>
            .cls-1 {
            fill: #fc5a49;
            }

            .cls-2 {
            fill: #014457;
            }
        </style>
    </defs>
    <title>logofont-vector</title>
    <g id="Ebene_2" data-name="Ebene 2">
        <g id="Ebene_1-2" data-name="Ebene 1">
            <polygon class="cls-1"
                     points="582.95 150.55 504.47 206.04 370.04 110.97 235.59 206.04 157.14 150.55 370.04 0 582.95 150.55"/>
            <polygon class="cls-1"
                     points="661.58 206.15 661.58 317.12 504.34 428.31 425.71 372.71 425.71 261.74 504.34 317.34 661.58 206.15"/>
            <polygon class="cls-1"
                     points="314.38 261.74 314.38 372.71 235.77 428.31 78.5 317.12 78.5 206.15 235.77 317.34 314.38 261.74"/>
            <polygon class="cls-2" points="504.33 317.34 504.33 428.3 425.71 372.71 425.71 261.75 504.33 317.34"/>
            <polygon class="cls-2" points="235.76 317.34 235.76 428.3 78.51 317.11 78.51 206.15 235.76 317.34"/>
            <polygon class="cls-2" points="582.95 150.54 504.48 206.03 370.04 110.97 370.04 0.01 582.95 150.54"/>
            <g>
                <path class="cls-2"
                      d="M307.13,582.67a3.44,3.44,0,0,1,2.57,1.15l7.16,7.77a39.31,39.31,0,0,1-14.62,11.28q-8.69,3.93-20.85,3.92a49.22,49.22,0,0,1-19.56-3.71A43.07,43.07,0,0,1,247,592.74a45.25,45.25,0,0,1-9.43-15.81,59.5,59.5,0,0,1-3.27-20.07,54.1,54.1,0,0,1,3.64-20.17,45.51,45.51,0,0,1,26.12-26.08,54.58,54.58,0,0,1,20.37-3.68,48.11,48.11,0,0,1,19,3.48,44.51,44.51,0,0,1,14,9.22l-6.09,8.45a5.43,5.43,0,0,1-1.38,1.41,3.91,3.91,0,0,1-2.33.61,5.31,5.31,0,0,1-3.18-1.21,39.55,39.55,0,0,0-4.12-2.64,33.94,33.94,0,0,0-6.32-2.63,36.42,36.42,0,0,0-22.36,1.18,28.12,28.12,0,0,0-9.94,6.86,31.5,31.5,0,0,0-6.48,10.84,41.56,41.56,0,0,0-2.33,14.36,42.63,42.63,0,0,0,2.33,14.66,32,32,0,0,0,6.32,10.81,26.91,26.91,0,0,0,9.39,6.73,29.06,29.06,0,0,0,11.62,2.33,50.5,50.5,0,0,0,6.72-.41,28.12,28.12,0,0,0,5.54-1.28,25.07,25.07,0,0,0,4.8-2.26,30.18,30.18,0,0,0,4.49-3.42,6.81,6.81,0,0,1,1.42-1A3.7,3.7,0,0,1,307.13,582.67Z"/>
                <path class="cls-2"
                      d="M388.58,606.55h-8a8.59,8.59,0,0,1-4-.76c-1-.5-1.68-2.44-2.16-4l-1.59-5.28A62.35,62.35,0,0,1,367.3,601a33.91,33.91,0,0,1-5.6,3.21,28.38,28.38,0,0,1-6.14,1.95,36.52,36.52,0,0,1-7.23.65,28.56,28.56,0,0,1-8.67-1.26,18.75,18.75,0,0,1-6.83-3.81,17.25,17.25,0,0,1-4.44-6.31,22.43,22.43,0,0,1-1.59-8.77,17.34,17.34,0,0,1,2.2-8.3,20.79,20.79,0,0,1,7.33-7.4A46.86,46.86,0,0,1,350,565.47a87.23,87.23,0,0,1,21.17-2.18v-3.68q0-7.5-3.14-11.1t-9.14-3.61a22.28,22.28,0,0,0-7.23,1,28.74,28.74,0,0,0-5,2.28q-2.13,1.26-3.94,2.28a8,8,0,0,1-4,1,5.14,5.14,0,0,1-3.11-.94,7.43,7.43,0,0,1-2.09-2.31l-3.25-5.71q12.78-11.71,30.85-11.71a29.88,29.88,0,0,1,11.6,2.13,24.8,24.8,0,0,1,8.63,5.93,25.22,25.22,0,0,1,5.38,9.07,34.77,34.77,0,0,1,1.85,11.56Zm-34.69-12A24.18,24.18,0,0,0,359,594a19.42,19.42,0,0,0,4.37-1.49,23.7,23.7,0,0,0,4-2.45,38.25,38.25,0,0,0,3.86-3.45V574.21a72,72,0,0,0-13,1,34.27,34.27,0,0,0-8.42,2.51,10.87,10.87,0,0,0-4.51,3.56,7.88,7.88,0,0,0-1.34,4.44c0,3.16.93,5.41,2.78,6.77A12,12,0,0,0,353.89,594.51Z"/>
                <path class="cls-2"
                      d="M406.14,606.57V530.9h10.91a4.38,4.38,0,0,1,4.55,3.25l.95,6.49a41.14,41.14,0,0,1,4.08-4,25.88,25.88,0,0,1,4.56-3.11,24,24,0,0,1,5.2-2.06,23,23,0,0,1,6.1-.76A17.3,17.3,0,0,1,454,534.53a22.92,22.92,0,0,1,6.76,10.08,22.68,22.68,0,0,1,4.33-6.32,23.66,23.66,0,0,1,5.71-4.3,26.5,26.5,0,0,1,6.61-2.46,32.42,32.42,0,0,1,7.05-.79,29.67,29.67,0,0,1,10.91,1.88,20.89,20.89,0,0,1,8,5.49,24.16,24.16,0,0,1,4.95,8.82,35.62,35.62,0,0,1,1.9,11.52v48.1H492.41v-48.1c0-4.72-1.24-7.88-3.31-10.26s-5.11-3.58-9.1-3.58a13.77,13.77,0,0,0-5.1.94,12.25,12.25,0,0,0-4.12,2.71,12.49,12.49,0,0,0-2.78,4.45,15.28,15.28,0,0,0-.81,5.74v48.07H449.27V558.45c0-5-1.2-8.18-3.2-10.44s-4.95-3.4-8.85-3.4a14.27,14.27,0,0,0-7.19,1.92,24.06,24.06,0,0,0-6.25,5.24l.2,54.8Z"/>
                <path class="cls-2"
                      d="M527.82,630.79V530.9h10.91a5.4,5.4,0,0,1,3,.79,3.73,3.73,0,0,1,1.59,2.46l1.45,7.47a35.22,35.22,0,0,1,10.3-7.71,27.92,27.92,0,0,1,13.62-3.18,24.27,24.27,0,0,1,11.09,2.53,24.81,24.81,0,0,1,8.67,7.33A32,32,0,0,1,594,551.84,59.43,59.43,0,0,1,596,568a50.88,50.88,0,0,1-2.24,15.39,37.64,37.64,0,0,1-6.39,12.29,29.74,29.74,0,0,1-10,8.13,29.2,29.2,0,0,1-13.18,2.92,26.6,26.6,0,0,1-10.66-1.91,26.13,26.13,0,0,1-7.84-5.31v31.29Zm34.68-86.57a18.19,18.19,0,0,0-9.5,2.35,27.42,27.42,0,0,0-7.33,6.61v33.24a17,17,0,0,0,6.61,5.24,20,20,0,0,0,7.69,1.48,17.33,17.33,0,0,0,7.34-1.52,14.11,14.11,0,0,0,5.56-4.63,22.8,22.8,0,0,0,3.51-7.84A44.66,44.66,0,0,0,577.61,568a49.49,49.49,0,0,0-1.05-11,21.32,21.32,0,0,0-3-7.33,11.88,11.88,0,0,0-4.73-4.12A14.77,14.77,0,0,0,562.5,544.22Z"/>
                <path class="cls-2"
                      d="M625.87,530.9v47.71q0,6.79,3.15,10.52t9.43,3.72a18.9,18.9,0,0,0,8.67-2.06,30.36,30.36,0,0,0,7.66-5.67V530.9h17.84l0,75.62H661.69c-2.31,0-3.81-2-4.53-4.13l-1.23-5.93a52,52,0,0,1-4.77,4.23,28.08,28.08,0,0,1-5.24,3.25,29,29,0,0,1-6,2.09,29.84,29.84,0,0,1-6.9.76,26.33,26.33,0,0,1-10.73-2,21.61,21.61,0,0,1-7.84-5.82,25.59,25.59,0,0,1-4.81-8.93A37.83,37.83,0,0,1,608,578.61V530.9Z"/>
                <path class="cls-2"
                      d="M736.43,546.55a4.73,4.73,0,0,1-1.51,1.63,4,4,0,0,1-2.16.54,7.2,7.2,0,0,1-2.65-.79c-1-.49-2.13-1-3.43-1.63a32.77,32.77,0,0,0-4.44-1.63,21.42,21.42,0,0,0-5.89-.72c-3.52,0-7,.75-9,2.24a7,7,0,0,0-3,5.85,4.27,4.27,0,0,0,1.56,3.41,13.82,13.82,0,0,0,4.12,2.86,40,40,0,0,0,5.81,2.2q3.25,1,6.65,2.13c2.26.78,4.48,1.65,6.65,2.64a23.1,23.1,0,0,1,5.81,3.76,16.55,16.55,0,0,1,5.68,13.11A24.63,24.63,0,0,1,738.6,592a21.71,21.71,0,0,1-5.71,7.8A26.83,26.83,0,0,1,723.6,605a40,40,0,0,1-12.68,1.84,41,41,0,0,1-7.48-.68,44.38,44.38,0,0,1-7-1.92,38.54,38.54,0,0,1-6.21-2.89,30.19,30.19,0,0,1-5-3.61l4.12-6.79a5.79,5.79,0,0,1,1.87-1.88,5.23,5.23,0,0,1,2.75-.65,5.71,5.71,0,0,1,3.14.94c1,.62,2.14,1.3,3.44,2a30.09,30.09,0,0,0,4.58,2,20.13,20.13,0,0,0,6.69.94,17.15,17.15,0,0,0,5.45-.76,11.42,11.42,0,0,0,3.76-2,7.44,7.44,0,0,0,2.17-2.86,8.49,8.49,0,0,0,.69-3.36,6,6,0,0,0-1.56-4.26,13.52,13.52,0,0,0-4.12-2.89,39.66,39.66,0,0,0-5.85-2.2q-3.29-1-6.72-2.14a60.86,60.86,0,0,1-6.72-2.71A22.74,22.74,0,0,1,693,567.2a17.7,17.7,0,0,1-4.12-5.86,20.33,20.33,0,0,1-1.55-8.38,18.73,18.73,0,0,1,1.8-8.07,20.47,20.47,0,0,1,5.31-7.19,26.35,26.35,0,0,1,8.75-4.91,40.94,40.94,0,0,1,12.83-1.85A37.16,37.16,0,0,1,730,533.47a31.38,31.38,0,0,1,10.48,6.65Z"/>
            </g>
            <g>
                <path class="cls-1"
                      d="M0,530.64V511.3a4.34,4.34,0,0,1,4.48-4.48A4.34,4.34,0,0,1,9,511.3v19.34H23.89A3.94,3.94,0,0,1,26.81,532a4.31,4.31,0,0,1,1.27,3,3.78,3.78,0,0,1-1.2,2.91,4.19,4.19,0,0,1-3,1.12H9v50q0,5.69,2.09,7.69a7.61,7.61,0,0,0,5.53,2,8.68,8.68,0,0,0,2.24-.37,8.38,8.38,0,0,1,2.09-.38,3,3,0,0,1,2.31,1.12,3.87,3.87,0,0,1,1,2.62c0,1.39-.79,2.56-2.39,3.5a10.85,10.85,0,0,1-5.67,1.42A31,31,0,0,1,9,605.91q-3.14-.75-6.05-4.48T0,589.48V530.64Z"/>
                <path class="cls-1"
                      d="M41.22,518a5.13,5.13,0,0,1-1.65-4.11v-1.49a5,5,0,0,1,1.72-4.11,7.13,7.13,0,0,1,4.7-1.42q6,0,6,5.53v1.49A5.26,5.26,0,0,1,50.4,518a6.59,6.59,0,0,1-4.55,1.41A6.87,6.87,0,0,1,41.22,518Zm7.84,87.37a4.48,4.48,0,0,1-7.69-3.21V535.26a4.48,4.48,0,1,1,9,0v66.91A4.36,4.36,0,0,1,49.06,605.38Z"/>
                <path class="cls-1"
                      d="M127,538.87c4.33,5.43,6.5,13.22,6.5,22.18v41.12a4.2,4.2,0,0,1-1.35,3.21,4.39,4.39,0,0,1-3.13,1.27,4.34,4.34,0,0,1-4.48-4.48V561.5q0-9.72-4.86-15.76c-3.23-4-8.24-6.65-15-6.65-4.28,0-8.34,1.6-12.17,3.59s-6.94,6-9.33,9.38a18.2,18.2,0,0,0-3.59,10.82v39.29a4.48,4.48,0,1,1-9,0v-66.9a4.48,4.48,0,1,1,9,0v10.39A31.73,31.73,0,0,1,91.17,535a31.14,31.14,0,0,1,15.46-4.25Q120.51,530.73,127,538.87Z"/>
                <path class="cls-1"
                      d="M213.33,532.08a4.39,4.39,0,0,1,1.27,3.21l.12,61.25c0,7.86-1.55,11.67-4.63,17.25a31,31,0,0,1-12.85,12.69,39,39,0,0,1-18.51,4.33A49.22,49.22,0,0,1,167,629.47a31,31,0,0,1-9-3.59c-2.09-1.29-3.14-2.74-3.14-4.33a8.79,8.79,0,0,1,.3-1.49,4.11,4.11,0,0,1,1.49-2.24,3.79,3.79,0,0,1,2.24-.75,4,4,0,0,1,1.8.45q9.56,5.22,18.22,5.23,12.39,0,19.63-7.77c4.83-5.18,7.25-10.72,7.25-19.68l0-2.43A27.82,27.82,0,0,1,194.88,603a31.4,31.4,0,0,1-15.23,3.81q-13,0-19.71-7.77t-6.72-21.06v-42.7a4.48,4.48,0,1,1,9,0v41.36q0,10.75,4.7,16.28t14.71,5.52a24.17,24.17,0,0,0,11.73-3.06,25,25,0,0,0,9-8.06,18.81,18.81,0,0,0,3.36-10.68v-41.3a4.54,4.54,0,0,1,7.69-3.21Z"/>
            </g>
        </g>
    </g>
</svg>
